\relax 
\providecommand\zref@newlabel[2]{}
\@writefile{toc}{\contentsline {chapter}{\numberline {1}Turn-in instructions}{2}}
\@writefile{lof}{\addvspace {10\p@ }}
\@writefile{lot}{\addvspace {10\p@ }}
\@writefile{toc}{\contentsline {chapter}{\numberline {2}Setting up Source Control}{3}}
\@writefile{lof}{\addvspace {10\p@ }}
\@writefile{lot}{\addvspace {10\p@ }}
\@writefile{toc}{\contentsline {section}{\numberline {2.1}Installing Git}{3}}
\@writefile{toc}{\contentsline {section}{\numberline {2.2}Make a GitLab account}{3}}
\@writefile{toc}{\contentsline {section}{\numberline {2.3}Fork a project in GitLab}{4}}
\@writefile{toc}{\contentsline {section}{\numberline {2.4}Sharing the project with the instructor}{6}}
\@writefile{toc}{\contentsline {section}{\numberline {2.5}Setting the project to private}{7}}
\@writefile{toc}{\contentsline {section}{\numberline {2.6}Cloning the repository on your computer}{7}}
\@writefile{toc}{\contentsline {paragraph}{Windows users:}{8}}
\@writefile{toc}{\contentsline {paragraph}{Linux (and Mac) users:}{8}}
\@writefile{toc}{\contentsline {paragraph}{Clone command:}{8}}
\@writefile{toc}{\contentsline {section}{\numberline {2.7}Setting up the config}{9}}
\@writefile{toc}{\contentsline {section}{\numberline {2.8}Add, Commit, and Push files}{10}}
\@writefile{toc}{\contentsline {subsection}{\numberline {2.8.1}Update README.md}{10}}
\@writefile{toc}{\contentsline {subsection}{\numberline {2.8.2}Add lab files}{11}}
\@writefile{toc}{\contentsline {subsection}{\numberline {2.8.3}Add, Commit, and Push via Git}{11}}
\@writefile{toc}{\contentsline {paragraph}{git status:}{12}}
\@writefile{toc}{\contentsline {paragraph}{git add:}{12}}
\@writefile{toc}{\contentsline {paragraph}{git status (again):}{13}}
\@writefile{toc}{\contentsline {paragraph}{git commit:}{13}}
\@writefile{toc}{\contentsline {paragraph}{git push:}{14}}
\@writefile{toc}{\contentsline {section}{\numberline {2.9}Viewing the commit log and file history}{15}}
\@writefile{toc}{\contentsline {subsection}{\numberline {2.9.1}The commit log}{15}}
\@writefile{toc}{\contentsline {subsection}{\numberline {2.9.2}File history}{17}}
\@writefile{toc}{\contentsline {paragraph}{Edit from the web:}{17}}
\@writefile{toc}{\contentsline {paragraph}{Blame:}{17}}
\@writefile{toc}{\contentsline {paragraph}{History:}{18}}
\@writefile{toc}{\contentsline {section}{\numberline {2.10}Pulling latest changes}{19}}
\newlabel{LastPage}{{}{19}}
\xdef\lastpage@lastpage{19}
\gdef\lastpage@lastpageHy{}
